^C:\USERS\DYLAN\DOCUMENTS\GITHUB\REMEMBER\DEBUG\BASEPLAYER.OBJ|C:\USERS\DYLAN\DOCUMENTS\GITHUB\REMEMBER\DEBUG\COMPILESHADERFROMFILE.OBJ|C:\USERS\DYLAN\DOCUMENTS\GITHUB\REMEMBER\DEBUG\ENGINE.OBJ|C:\USERS\DYLAN\DOCUMENTS\GITHUB\REMEMBER\DEBUG\FONT.OBJ|C:\USERS\DYLAN\DOCUMENTS\GITHUB\REMEMBER\DEBUG\HOMEWORK 8.RES|C:\USERS\DYLAN\DOCUMENTS\GITHUB\REMEMBER\DEBUG\LOAD3DS.OBJ|C:\USERS\DYLAN\DOCUMENTS\GITHUB\REMEMBER\DEBUG\MAIN.OBJ|C:\USERS\DYLAN\DOCUMENTS\GITHUB\REMEMBER\DEBUG\NENCODING.OBJ|C:\USERS\DYLAN\DOCUMENTS\GITHUB\REMEMBER\DEBUG\RENDERTEXTURE.OBJ|C:\USERS\DYLAN\DOCUMENTS\GITHUB\REMEMBER\DEBUG\SKYSPHERE.OBJ|C:\USERS\DYLAN\DOCUMENTS\GITHUB\REMEMBER\DEBUG\SOUND.OBJ|C:\USERS\DYLAN\DOCUMENTS\GITHUB\REMEMBER\DEBUG\TIMER.OBJ
C:\WINDOWS\GLOBALIZATION\SORTING\SORTDEFAULT.NLS
C:\PROGRAM FILES (X86)\WINDOWS KITS\8.1\LIB\WINV6.3\UM\X86\D3D11.LIB
C:\PROGRAM FILES (X86)\WINDOWS KITS\8.1\LIB\WINV6.3\UM\X86\D3DCOMPILER.LIB
C:\PROGRAM FILES (X86)\MICROSOFT DIRECTX SDK (JUNE 2010)\LIB\X86\D3DX11D.LIB
C:\PROGRAM FILES (X86)\MICROSOFT DIRECTX SDK (JUNE 2010)\LIB\X86\D3DX9D.LIB
C:\PROGRAM FILES (X86)\MICROSOFT DIRECTX SDK (JUNE 2010)\LIB\X86\DXERR.LIB
C:\PROGRAM FILES (X86)\WINDOWS KITS\8.1\LIB\WINV6.3\UM\X86\DXGUID.LIB
C:\PROGRAM FILES (X86)\WINDOWS KITS\8.1\LIB\WINV6.3\UM\X86\WINMM.LIB
C:\PROGRAM FILES (X86)\WINDOWS KITS\8.1\LIB\WINV6.3\UM\X86\COMCTL32.LIB
C:\PROGRAM FILES (X86)\WINDOWS KITS\8.1\LIB\WINV6.3\UM\X86\KERNEL32.LIB
C:\PROGRAM FILES (X86)\WINDOWS KITS\8.1\LIB\WINV6.3\UM\X86\USER32.LIB
C:\PROGRAM FILES (X86)\WINDOWS KITS\8.1\LIB\WINV6.3\UM\X86\GDI32.LIB
C:\PROGRAM FILES (X86)\WINDOWS KITS\8.1\LIB\WINV6.3\UM\X86\WINSPOOL.LIB
C:\PROGRAM FILES (X86)\WINDOWS KITS\8.1\LIB\WINV6.3\UM\X86\COMDLG32.LIB
C:\PROGRAM FILES (X86)\WINDOWS KITS\8.1\LIB\WINV6.3\UM\X86\ADVAPI32.LIB
C:\PROGRAM FILES (X86)\WINDOWS KITS\8.1\LIB\WINV6.3\UM\X86\SHELL32.LIB
C:\PROGRAM FILES (X86)\WINDOWS KITS\8.1\LIB\WINV6.3\UM\X86\OLE32.LIB
C:\PROGRAM FILES (X86)\WINDOWS KITS\8.1\LIB\WINV6.3\UM\X86\OLEAUT32.LIB
C:\PROGRAM FILES (X86)\WINDOWS KITS\8.1\LIB\WINV6.3\UM\X86\UUID.LIB
C:\PROGRAM FILES (X86)\WINDOWS KITS\8.1\LIB\WINV6.3\UM\X86\ODBC32.LIB
C:\PROGRAM FILES (X86)\WINDOWS KITS\8.1\LIB\WINV6.3\UM\X86\ODBCCP32.LIB
C:\USERS\DYLAN\DOCUMENTS\GITHUB\REMEMBER\DEBUG\HOMEWORK 8.RES
C:\USERS\DYLAN\DOCUMENTS\GITHUB\REMEMBER\DEBUG\BASEPLAYER.OBJ
C:\USERS\DYLAN\DOCUMENTS\GITHUB\REMEMBER\DEBUG\COMPILESHADERFROMFILE.OBJ
C:\USERS\DYLAN\DOCUMENTS\GITHUB\REMEMBER\DEBUG\ENGINE.OBJ
C:\USERS\DYLAN\DOCUMENTS\GITHUB\REMEMBER\DEBUG\FONT.OBJ
C:\USERS\DYLAN\DOCUMENTS\GITHUB\REMEMBER\DEBUG\MAIN.OBJ
C:\USERS\DYLAN\DOCUMENTS\GITHUB\REMEMBER\DEBUG\LOAD3DS.OBJ
C:\USERS\DYLAN\DOCUMENTS\GITHUB\REMEMBER\DEBUG\NENCODING.OBJ
C:\USERS\DYLAN\DOCUMENTS\GITHUB\REMEMBER\DEBUG\RENDERTEXTURE.OBJ
C:\USERS\DYLAN\DOCUMENTS\GITHUB\REMEMBER\DEBUG\SKYSPHERE.OBJ
C:\USERS\DYLAN\DOCUMENTS\GITHUB\REMEMBER\DEBUG\SOUND.OBJ
C:\USERS\DYLAN\DOCUMENTS\GITHUB\REMEMBER\DEBUG\TIMER.OBJ
C:\WINDOWS\SYSTEM32\TZRES.DLL
C:\PROGRAM FILES (X86)\MICROSOFT VISUAL STUDIO 14.0\VC\INCLUDE\MANIFEST\DPIAWARE.MANIFEST
C:\PROGRAM FILES (X86)\MICROSOFT VISUAL STUDIO 14.0\VC\LIB\MSVCPRTD.LIB
C:\PROGRAM FILES (X86)\WINDOWS KITS\8.1\LIB\WINV6.3\UM\X86\STRMIIDS.LIB
C:\PROGRAM FILES (X86)\MICROSOFT VISUAL STUDIO 14.0\VC\LIB\MSVCRTD.LIB
C:\PROGRAM FILES (X86)\MICROSOFT VISUAL STUDIO 14.0\VC\LIB\OLDNAMES.LIB
C:\PROGRAM FILES (X86)\MICROSOFT VISUAL STUDIO 14.0\VC\LIB\VCRUNTIMED.LIB
C:\PROGRAM FILES (X86)\WINDOWS KITS\10\LIB\10.0.10240.0\UCRT\X86\UCRTD.LIB
C:\PROGRAM FILES (X86)\WINDOWS KITS\8.1\BIN\X86\MT.EXE
C:\PROGRAM FILES (X86)\WINDOWS KITS\8.1\BIN\X86\RC.EXE
C:\PROGRAM FILES (X86)\MICROSOFT VISUAL STUDIO 14.0\VC\BIN\CVTRES.EXE
