^C:\USERS\DYLAN\DOCUMENTS\GITHUB\REMEMBER\DEBUG\BASEPLAYER.OBJ|C:\USERS\DYLAN\DOCUMENTS\GITHUB\REMEMBER\DEBUG\COMPILESHADERFROMFILE.OBJ|C:\USERS\DYLAN\DOCUMENTS\GITHUB\REMEMBER\DEBUG\ENGINE.OBJ|C:\USERS\DYLAN\DOCUMENTS\GITHUB\REMEMBER\DEBUG\FONT.OBJ|C:\USERS\DYLAN\DOCUMENTS\GITHUB\REMEMBER\DEBUG\HOMEWORK 8.RES|C:\USERS\DYLAN\DOCUMENTS\GITHUB\REMEMBER\DEBUG\LOAD3DS.OBJ|C:\USERS\DYLAN\DOCUMENTS\GITHUB\REMEMBER\DEBUG\MAIN.OBJ|C:\USERS\DYLAN\DOCUMENTS\GITHUB\REMEMBER\DEBUG\NENCODING.OBJ|C:\USERS\DYLAN\DOCUMENTS\GITHUB\REMEMBER\DEBUG\RENDERTEXTURE.OBJ|C:\USERS\DYLAN\DOCUMENTS\GITHUB\REMEMBER\DEBUG\SKYSPHERE.OBJ|C:\USERS\DYLAN\DOCUMENTS\GITHUB\REMEMBER\DEBUG\SOUND.OBJ|C:\USERS\DYLAN\DOCUMENTS\GITHUB\REMEMBER\DEBUG\TIMER.OBJ
C:\USERS\DYLAN\DOCUMENTS\GITHUB\REMEMBER\DEBUG\REMEMBER.ILK
C:\USERS\DYLAN\DOCUMENTS\GITHUB\REMEMBER\DEBUG\REMEMBER.EXE
C:\USERS\DYLAN\DOCUMENTS\GITHUB\REMEMBER\DEBUG\REMEMBER.PDB
